%YAML 1.1
%TAG !u! tag:unity3d.com,2011:
--- !u!114 &11400000
MonoBehaviour:
  m_ObjectHideFlags: 0
  m_CorrespondingSourceObject: {fileID: 0}
  m_PrefabInternal: {fileID: 0}
  m_GameObject: {fileID: 0}
  m_Enabled: 1
  m_EditorHideFlags: 0
  m_Script: {fileID: 11500000, guid: 957cf821b97e0f5438c9f3a087349e1c, type: 3}
  m_Name: Settings
  m_EditorClassIdentifier: 
  m_list:
  - m_commandName: Edit/Selection/Save Selection 1
    m_buttonName: "\u25CF1"
    m_image: {fileID: 0}
    m_width: 30
  - m_commandName: Edit/Selection/Save Selection 2
    m_buttonName: "\u25CF2"
    m_image: {fileID: 0}
    m_width: 30
  - m_commandName: Edit/Selection/Save Selection 3
    m_buttonName: "\u25CF3"
    m_image: {fileID: 0}
    m_width: 30
  - m_commandName: Edit/Selection/Save Selection 4
    m_buttonName: "\u25CF4"
    m_image: {fileID: 0}
    m_width: 30
  - m_commandName: Edit/Selection/Save Selection 5
    m_buttonName: "\u25CF5"
    m_image: {fileID: 0}
    m_width: 30
  - m_commandName: Edit/Selection/Save Selection 6
    m_buttonName: "\u25CF6"
    m_image: {fileID: 0}
    m_width: 30
  - m_commandName: Edit/Selection/Save Selection 7
    m_buttonName: "\u25CF7"
    m_image: {fileID: 0}
    m_width: 30
  - m_commandName: Edit/Selection/Load Selection 1
    m_buttonName: "\u25BC1"
    m_image: {fileID: 0}
    m_width: 30
  - m_commandName: Edit/Selection/Load Selection 2
    m_buttonName: "\u25BC2"
    m_image: {fileID: 0}
    m_width: 30
  - m_commandName: Edit/Selection/Load Selection 3
    m_buttonName: "\u25BC3"
    m_image: {fileID: 0}
    m_width: 30
  - m_commandName: Edit/Selection/Load Selection 4
    m_buttonName: "\u25BC4"
    m_image: {fileID: 0}
    m_width: 30
  - m_commandName: Edit/Selection/Load Selection 5
    m_buttonName: "\u25BC5"
    m_image: {fileID: 0}
    m_width: 30
  - m_commandName: Edit/Selection/Load Selection 6
    m_buttonName: "\u25BC6"
    m_image: {fileID: 0}
    m_width: 30
  - m_commandName: Edit/Selection/Load Selection 7
    m_buttonName: "\u25BC7"
    m_image: {fileID: 0}
    m_width: 30
