%YAML 1.1
%TAG !u! tag:unity3d.com,2011:
--- !u!74 &7400000
AnimationClip:
  m_ObjectHideFlags: 0
  m_CorrespondingSourceObject: {fileID: 0}
  m_PrefabInternal: {fileID: 0}
  m_Name: ani
  serializedVersion: 6
  m_Legacy: 0
  m_Compressed: 0
  m_UseHighQualityCurve: 1
  m_RotationCurves: []
  m_CompressedRotationCurves: []
  m_EulerCurves: []
  m_PositionCurves: []
  m_ScaleCurves: []
  m_FloatCurves: []
  m_PPtrCurves:
  - curve:
    - time: 0
      value: {fileID: 21300000, guid: 7b673adc1412f9141be32fc571af7659, type: 3}
    - time: 0.033333335
      value: {fileID: 21300000, guid: 8e5fd712e177d6540868daf2360e9555, type: 3}
    - time: 0.06666667
      value: {fileID: 21300000, guid: e05a5a13d1c412f4c88dbdf677d38a6c, type: 3}
    - time: 0.1
      value: {fileID: 21300000, guid: 8444bf70fd43875458a972f986ed92d4, type: 3}
    - time: 0.13333334
      value: {fileID: 21300000, guid: 173f53a4962be0643bda726439e1b529, type: 3}
    - time: 0.16666667
      value: {fileID: 21300000, guid: a346b63dec49c144a8aba419b4946bb1, type: 3}
    - time: 0.2
      value: {fileID: 21300000, guid: a453ed8e3c8477c4f9a66d0e91cff61c, type: 3}
    - time: 0.23333333
      value: {fileID: 21300000, guid: e04f798cfc3c60c43b331a374c6d6fe2, type: 3}
    - time: 0.26666668
      value: {fileID: 21300000, guid: a77c6d6af14b36e428cb2b8737e68ee3, type: 3}
    - time: 0.3
      value: {fileID: 21300000, guid: e4c8a962ebd7a3644981ff64b1aa08fd, type: 3}
    - time: 0.33333334
      value: {fileID: 21300000, guid: fa34fd0831f82a04ba577ee492a2326b, type: 3}
    - time: 0.36666667
      value: {fileID: 21300000, guid: fafe0b61ae2671545b6858abfdcac9f0, type: 3}
    - time: 0.4
      value: {fileID: 21300000, guid: b3ca64467ca45bc439517ea39aa2f38f, type: 3}
    - time: 0.43333334
      value: {fileID: 21300000, guid: 71679d8bd73752349849c4d0e3effabf, type: 3}
    - time: 0.46666667
      value: {fileID: 21300000, guid: e67a21312350f7a45aabe522ca234240, type: 3}
    - time: 0.5
      value: {fileID: 21300000, guid: 2131bece98d6893419136bd4b4f88ec3, type: 3}
    - time: 0.53333336
      value: {fileID: 21300000, guid: ee20ffe08cdd7da4daca1673cde1e1c0, type: 3}
    - time: 0.56666666
      value: {fileID: 21300000, guid: 8dcd977d0d838af4fbe26ccdb871c8db, type: 3}
    - time: 0.6
      value: {fileID: 21300000, guid: 0395e5eeb3cc9e948b8f571f9834ea54, type: 3}
    - time: 0.6333333
      value: {fileID: 21300000, guid: 2e39dba5c9a55d44186305ae22e37219, type: 3}
    - time: 0.6666667
      value: {fileID: 21300000, guid: b4f799c6248c43e40b324754aa29c959, type: 3}
    - time: 0.7
      value: {fileID: 21300000, guid: 9927769f73500af41a15b1e6b36cfff7, type: 3}
    - time: 0.73333335
      value: {fileID: 21300000, guid: 0ba6142f654c1ae479ab1336a5e16941, type: 3}
    - time: 0.76666665
      value: {fileID: 21300000, guid: 3cf45e474eca0c344a480b49d66629eb, type: 3}
    - time: 0.8
      value: {fileID: 21300000, guid: 2ce6c4bfec86ca34fa542b73ff6635d8, type: 3}
    - time: 0.8333333
      value: {fileID: 21300000, guid: 41c2f778f0ef0d14fbfb1120fa5f4a8a, type: 3}
    - time: 0.8666667
      value: {fileID: 21300000, guid: dbdb7725fb715f344a296ab03d5f7e79, type: 3}
    - time: 0.9
      value: {fileID: 21300000, guid: 9f0599bf7a37bdf41987c93042fec61b, type: 3}
    - time: 0.93333334
      value: {fileID: 21300000, guid: 2ae2a7a624b42c04db5d45fb3af2307a, type: 3}
    - time: 0.96666664
      value: {fileID: 21300000, guid: b499499c70ae5534781f9ff429ac6afa, type: 3}
    - time: 1
      value: {fileID: 21300000, guid: 13071c56719acc64e9e5e884591dd6ca, type: 3}
    - time: 1.0333333
      value: {fileID: 21300000, guid: 288a2f3e0ee4f504ea5be73aff493f32, type: 3}
    - time: 1.0666667
      value: {fileID: 21300000, guid: 74a12ad2154a30f4c95d156f82ef9742, type: 3}
    - time: 1.1
      value: {fileID: 21300000, guid: e41495eb8ee9ab24fa92bfb6facb581c, type: 3}
    - time: 1.1333333
      value: {fileID: 21300000, guid: f58a7ab3a7c9fc8418b06d89b554ab2a, type: 3}
    - time: 1.1666666
      value: {fileID: 21300000, guid: ecb4bad5579af7e479f84336766e4118, type: 3}
    - time: 1.2
      value: {fileID: 21300000, guid: 3e1049580befb7a45ad273bfdd146c06, type: 3}
    - time: 1.2333333
      value: {fileID: 21300000, guid: b469f5af420c0f949b5fdba39e89ec58, type: 3}
    - time: 1.2666667
      value: {fileID: 21300000, guid: 749f7fd787f2aaf4e8d90a4fac073489, type: 3}
    - time: 1.3
      value: {fileID: 21300000, guid: 7385873841a2b174abacbfaf8c354f1a, type: 3}
    - time: 1.3333334
      value: {fileID: 21300000, guid: 7ab07e7c272f71d4aa3e4b2aa8dc055b, type: 3}
    - time: 1.3666667
      value: {fileID: 21300000, guid: b803c3152b4ddad46b218b163400406f, type: 3}
    - time: 1.4
      value: {fileID: 21300000, guid: 93144b5bfaaada8448b73bb5f19cb806, type: 3}
    - time: 1.4333333
      value: {fileID: 21300000, guid: f2e0826b48dd26947a562c1365db0620, type: 3}
    - time: 1.4666667
      value: {fileID: 21300000, guid: 28c343fda85148545872432b9dda5b01, type: 3}
    - time: 1.5
      value: {fileID: 21300000, guid: fa0b4802f6eccd7499e8d67324959279, type: 3}
    - time: 1.5333333
      value: {fileID: 21300000, guid: e6e689d46bb3a3f4ca06c86dbcbede41, type: 3}
    - time: 1.5666667
      value: {fileID: 21300000, guid: c2daee776d748f44fab3b25c3561f090, type: 3}
    - time: 1.6
      value: {fileID: 21300000, guid: 2470c22bc6f0c7c40849f4a2415879be, type: 3}
    - time: 1.6333333
      value: {fileID: 21300000, guid: e1a751cead361214f8651903658dc324, type: 3}
    - time: 1.6666666
      value: {fileID: 21300000, guid: 1db1ad65e1da2d3409663b4047800e3d, type: 3}
    - time: 1.7
      value: {fileID: 21300000, guid: a9977598644bfd543843af75f245c543, type: 3}
    - time: 1.7333333
      value: {fileID: 21300000, guid: c0282c6417bb9fa4facc23c21b799ee0, type: 3}
    - time: 1.7666667
      value: {fileID: 21300000, guid: 826d42ea2e69914418a81585bdf5073f, type: 3}
    - time: 1.8
      value: {fileID: 21300000, guid: a3fb5e7584bf3294c9640183ad0fe4fd, type: 3}
    - time: 1.8333334
      value: {fileID: 21300000, guid: e643c5b7e6d097545af85d445ee8adfe, type: 3}
    - time: 1.8666667
      value: {fileID: 21300000, guid: 42cb876d2a06bfb43807874335298d40, type: 3}
    - time: 1.9
      value: {fileID: 21300000, guid: a0d7662842de5f542afd2420f75e7b73, type: 3}
    - time: 1.9333333
      value: {fileID: 21300000, guid: 3bf42739f78c4ee448ef3a4ce97fb229, type: 3}
    - time: 1.9666667
      value: {fileID: 21300000, guid: 5db0171d4515c634db7104a800f64b90, type: 3}
    - time: 2
      value: {fileID: 21300000, guid: 39420add5a31b624cb0ef03a2812d242, type: 3}
    - time: 2.0333333
      value: {fileID: 21300000, guid: 6f51e420ced64864a97d2505bce75b3b, type: 3}
    - time: 2.0666666
      value: {fileID: 21300000, guid: 5b0d30d00461a1a4399619fcc1f99c1b, type: 3}
    - time: 2.1
      value: {fileID: 21300000, guid: 5baab5be7fb820141920f9296b89fafc, type: 3}
    - time: 2.1333334
      value: {fileID: 21300000, guid: b3e096b06b2a3b9428743b61df4bdbdf, type: 3}
    - time: 2.1666667
      value: {fileID: 21300000, guid: cd17d874467db7e4c89cd49b95f3d855, type: 3}
    - time: 2.2
      value: {fileID: 21300000, guid: a409f336df57b1148a53d725954352eb, type: 3}
    - time: 2.2333333
      value: {fileID: 21300000, guid: 74fea203ac3e3c643841b94f44ac8709, type: 3}
    - time: 2.2666667
      value: {fileID: 21300000, guid: 9e878ce5e04d12b468cd34cd91e2672d, type: 3}
    - time: 2.3
      value: {fileID: 21300000, guid: 954890f0ca1aa5b428c30e8f5d08b871, type: 3}
    - time: 2.3333333
      value: {fileID: 21300000, guid: 2cf154c1e267b474bb8c0b4abde05741, type: 3}
    - time: 2.3666666
      value: {fileID: 21300000, guid: f090ea04a724bf8438376bd102333bf2, type: 3}
    - time: 2.4
      value: {fileID: 21300000, guid: 084c6e81763d706419af570f0dfa0fca, type: 3}
    - time: 2.4333334
      value: {fileID: 21300000, guid: 169031c4650abba44b7e29e45219e7df, type: 3}
    - time: 2.4666667
      value: {fileID: 21300000, guid: 324543697f6136e408f81e6cde8f15bf, type: 3}
    - time: 2.5
      value: {fileID: 21300000, guid: 6a699c1c9cd5bf44c9161521c4ee4b67, type: 3}
    - time: 2.5333333
      value: {fileID: 21300000, guid: 06285da60ddef5346a89345ab83299ef, type: 3}
    - time: 2.5666666
      value: {fileID: 21300000, guid: 1b6ab95b1d334ec4e9458469433addb0, type: 3}
    - time: 2.6
      value: {fileID: 21300000, guid: e0287ca487b67de46a8426158fe692f0, type: 3}
    - time: 2.6333334
      value: {fileID: 21300000, guid: 937b7229472a46b49b649bc2dd800512, type: 3}
    - time: 2.6666667
      value: {fileID: 21300000, guid: 8bec1aefcaaae46458ce548ffc697c3f, type: 3}
    - time: 2.7
      value: {fileID: 21300000, guid: b11454420d3085a4b8d5e831194391c7, type: 3}
    - time: 2.7333333
      value: {fileID: 21300000, guid: 925cbde5b6ecdee43bba1a659d4e97ef, type: 3}
    - time: 2.7666667
      value: {fileID: 21300000, guid: e2bf1efb071eaa849b10f272412aa31a, type: 3}
    - time: 2.8
      value: {fileID: 21300000, guid: 25b6566d21c9758488328a329f746678, type: 3}
    - time: 2.8333333
      value: {fileID: 21300000, guid: 9c2d9422d108c8f49a647de465878303, type: 3}
    - time: 2.8666666
      value: {fileID: 21300000, guid: f209f423b719f9a4293203e1c66b4538, type: 3}
    - time: 2.9
      value: {fileID: 21300000, guid: 09d167bcffb5bab459caa587f983cea7, type: 3}
    - time: 2.9333334
      value: {fileID: 21300000, guid: ba0cb0b10a6d6fe438444dd231df5459, type: 3}
    - time: 2.9666667
      value: {fileID: 21300000, guid: bd2d45ea7bf8eed4994204cf9e02cf32, type: 3}
    - time: 3
      value: {fileID: 21300000, guid: ab0435884cf0177419877fbac9f051be, type: 3}
    - time: 3.0333333
      value: {fileID: 21300000, guid: 90961a7ec124fa94da26e0c991a3562a, type: 3}
    - time: 3.0666666
      value: {fileID: 21300000, guid: 1c2f54763708c2f4d97038aae5157282, type: 3}
    - time: 3.1
      value: {fileID: 21300000, guid: 313f872084808be47aab683c7d83b6fc, type: 3}
    - time: 3.1333334
      value: {fileID: 21300000, guid: 96db0964f52313048ae7d09e87d2bcfd, type: 3}
    - time: 3.1666667
      value: {fileID: 21300000, guid: 6a911ad23632c96459d03853f8fcbcce, type: 3}
    - time: 3.2
      value: {fileID: 21300000, guid: 7967b9e4dd58b42409fa008b8d51ab1d, type: 3}
    - time: 3.2333333
      value: {fileID: 21300000, guid: f93218b0631fc5347b784468c28d774c, type: 3}
    - time: 3.2666667
      value: {fileID: 21300000, guid: 2dc33c8a6fc757c4b8ebb4d4a55429bf, type: 3}
    - time: 3.3
      value: {fileID: 21300000, guid: 499251e4546961f4fa43001992e643b5, type: 3}
    - time: 3.3333333
      value: {fileID: 21300000, guid: c6e19076be3d87f47ae79502468c1dc0, type: 3}
    - time: 3.3666666
      value: {fileID: 21300000, guid: 4a7ec1d3e14a0954c9bb8f30314a3ff8, type: 3}
    - time: 3.4
      value: {fileID: 21300000, guid: f2c24ba7bb938424b9dafa46dea4a074, type: 3}
    - time: 3.4333334
      value: {fileID: 21300000, guid: fc50e37c476093245bc61de1f4d3936d, type: 3}
    - time: 3.4666667
      value: {fileID: 21300000, guid: a049f49212f182c4cbaf5d881691b990, type: 3}
    - time: 3.5
      value: {fileID: 21300000, guid: ca2eafd7aa9a1e6488f33d14e440f372, type: 3}
    - time: 3.5333333
      value: {fileID: 21300000, guid: ec3d8476680913e4c855553b1f8b1a63, type: 3}
    - time: 3.5666666
      value: {fileID: 21300000, guid: e1f9f94051b0e9d4ebf789f0d851169f, type: 3}
    - time: 3.6
      value: {fileID: 21300000, guid: 4b76d3d81bcae1f47ba7e760e6f9b3f5, type: 3}
    - time: 3.6333334
      value: {fileID: 21300000, guid: 1332e27ab3433374f88be2814027d941, type: 3}
    - time: 3.6666667
      value: {fileID: 21300000, guid: b1d5276829300d8489314da8c6f63519, type: 3}
    - time: 3.7
      value: {fileID: 21300000, guid: 3756c365b074db542894269366b79d79, type: 3}
    - time: 3.7333333
      value: {fileID: 21300000, guid: 518cb832a459475489e7b6380fd7ca91, type: 3}
    - time: 3.7666667
      value: {fileID: 21300000, guid: f85846a8819d6ac4187df6cd7e377ccc, type: 3}
    - time: 3.8
      value: {fileID: 21300000, guid: 923c074788290d646a75c511185d0fd9, type: 3}
    - time: 3.8333333
      value: {fileID: 21300000, guid: a2e900ba68d48784fb6460a516c76dbf, type: 3}
    - time: 3.8666666
      value: {fileID: 21300000, guid: a5e707672464db74dbed69e8bca3931a, type: 3}
    - time: 3.9
      value: {fileID: 21300000, guid: 26b8bc20aaf36394db2f98be838d9953, type: 3}
    - time: 3.9333334
      value: {fileID: 21300000, guid: a4bff8653cefe12438232cd3be21d6e5, type: 3}
    - time: 3.9666667
      value: {fileID: 21300000, guid: 3239735a1342c7a44b7720824250320c, type: 3}
    - time: 4
      value: {fileID: 21300000, guid: 9b70fcfe54996e04c80dfb1e21fe5ac1, type: 3}
    - time: 4.0333333
      value: {fileID: 21300000, guid: 15b06d6eb375b124ea95442079a00a4b, type: 3}
    - time: 4.0666666
      value: {fileID: 21300000, guid: d85584b4ad66e9b429fce02f8cb1b756, type: 3}
    - time: 4.1
      value: {fileID: 21300000, guid: 0c379fc270b76f54c80f7f081f5c6789, type: 3}
    - time: 4.133333
      value: {fileID: 21300000, guid: a3d32cb4516f20c4388dee92fc259af1, type: 3}
    - time: 4.1666665
      value: {fileID: 21300000, guid: 618ddcbf792d6654fb605b4eebccb670, type: 3}
    - time: 4.2
      value: {fileID: 21300000, guid: 5be6e17abd3b952438cae6fa6eb1e3af, type: 3}
    - time: 4.233333
      value: {fileID: 21300000, guid: 62387ce0318e9364785d2e02d0fe872b, type: 3}
    - time: 4.266667
      value: {fileID: 21300000, guid: 3f50b36e8c50b5a43bd69e12bb9406a0, type: 3}
    - time: 4.3
      value: {fileID: 21300000, guid: 4ba2d76f6b6b42044b150f6dc8cd4222, type: 3}
    - time: 4.3333335
      value: {fileID: 21300000, guid: 2421b1fd28a59144aa63456e6ec3cf3b, type: 3}
    - time: 4.366667
      value: {fileID: 21300000, guid: 2558e7d13bfff8644886b9a0559d98b9, type: 3}
    - time: 4.4
      value: {fileID: 21300000, guid: 6b16a0fef4f6503409a9d48f1e497001, type: 3}
    - time: 4.4333334
      value: {fileID: 21300000, guid: 8b7b2a0d155fc7344b1502dff6126da4, type: 3}
    - time: 4.4666667
      value: {fileID: 21300000, guid: 15d37f88d4ddd19418fce66353d11fce, type: 3}
    - time: 4.5
      value: {fileID: 21300000, guid: 5c39290653ae03645ae4e2e9fd49b775, type: 3}
    - time: 4.5333333
      value: {fileID: 21300000, guid: 1e5e492476ac28648b23ac6840713f48, type: 3}
    - time: 4.5666666
      value: {fileID: 21300000, guid: 871b1d05872320c4f934a4a6544f9718, type: 3}
    - time: 4.6
      value: {fileID: 21300000, guid: 12ed935b075437f48af6d70db9b8c2fc, type: 3}
    - time: 4.633333
      value: {fileID: 21300000, guid: dc18d2597e2c3d7419bc3f5144768158, type: 3}
    - time: 4.6666665
      value: {fileID: 21300000, guid: fefee6cb466dc204cab676eedb711367, type: 3}
    - time: 4.7
      value: {fileID: 21300000, guid: 83e76578fa9b3964ab1a5632ca1dac84, type: 3}
    - time: 4.733333
      value: {fileID: 21300000, guid: e84e3757a5c996d4ebd2aa96fa1d4861, type: 3}
    - time: 4.766667
      value: {fileID: 21300000, guid: a5517d6c172d218448adb1ac30b2fe1b, type: 3}
    - time: 4.8
      value: {fileID: 21300000, guid: 1b1f9144a752c4b418124a2839e3ddf8, type: 3}
    - time: 4.8333335
      value: {fileID: 21300000, guid: 21c6b7deb85658a4a9073a4e4977cf1f, type: 3}
    - time: 4.866667
      value: {fileID: 21300000, guid: ced7021dd9cf52d4d8b2dbbf7a53b06e, type: 3}
    - time: 4.9
      value: {fileID: 21300000, guid: 9f454ff8c0acb6749930ce0efee7e995, type: 3}
    - time: 4.9333334
      value: {fileID: 21300000, guid: 1555636e0df9a2e4ea980e1a6b8057f2, type: 3}
    - time: 4.9666667
      value: {fileID: 21300000, guid: 8b7a31f1aa9fd0948902018cda291337, type: 3}
    - time: 5
      value: {fileID: 21300000, guid: 88a8ec132ff028e438c4874bdfaa48e4, type: 3}
    - time: 5.0333333
      value: {fileID: 21300000, guid: fda41096eb3733b4fb1cec7cc719b018, type: 3}
    - time: 5.0666666
      value: {fileID: 21300000, guid: 295c1734cea4f964d9185a08acc90934, type: 3}
    - time: 5.1
      value: {fileID: 21300000, guid: 1b7d3f864033b88469a63d9eff7cfb80, type: 3}
    - time: 5.133333
      value: {fileID: 21300000, guid: 7bc560ee978c3d74b82e644e41761a76, type: 3}
    - time: 5.1666665
      value: {fileID: 21300000, guid: 144e0df4f22c737489a40dfcace17d3f, type: 3}
    - time: 5.2
      value: {fileID: 21300000, guid: c10a9d725402e894782df527c60899d0, type: 3}
    - time: 5.233333
      value: {fileID: 21300000, guid: 8bbe4ef8e4a851c4aa4fad3141d5aeea, type: 3}
    - time: 5.266667
      value: {fileID: 21300000, guid: 11b78737bd3ead143839baffef1cc64f, type: 3}
    - time: 5.3
      value: {fileID: 21300000, guid: 0f2a178dbf2263b4988f54340b6bbbca, type: 3}
    - time: 5.3333335
      value: {fileID: 21300000, guid: 78d664e73febda742bcc1f1d2142f6fd, type: 3}
    - time: 5.366667
      value: {fileID: 21300000, guid: e541013e7cbf3414a9bd7e63d0134c9d, type: 3}
    - time: 5.4
      value: {fileID: 21300000, guid: 74340b98f88598c4b94357fbd5ae9cba, type: 3}
    - time: 5.4333334
      value: {fileID: 21300000, guid: 0d65e0f6fb65d4646a2d720caa6636d5, type: 3}
    - time: 5.4666667
      value: {fileID: 21300000, guid: 377ee94d63618374aac4c2949ec778cc, type: 3}
    - time: 5.5
      value: {fileID: 21300000, guid: b80e37a9a266ace429f3a0e8026048b8, type: 3}
    - time: 5.5333333
      value: {fileID: 21300000, guid: 05e200f3582a5d14dbd0917f90ba3753, type: 3}
    - time: 5.5666666
      value: {fileID: 21300000, guid: d863eb2909c2dfb4da6eed6e24187fef, type: 3}
    - time: 5.6
      value: {fileID: 21300000, guid: 81ca6ef25232fa845862d4404ad17431, type: 3}
    - time: 5.633333
      value: {fileID: 21300000, guid: 808a45b5d3990bd46ba41e3ad8295e4c, type: 3}
    - time: 5.6666665
      value: {fileID: 21300000, guid: e3ab0a9d4659d1343974ca4e73720470, type: 3}
    - time: 5.7
      value: {fileID: 21300000, guid: 8e17e4046e1e960428a0ab80eec92ab7, type: 3}
    - time: 5.733333
      value: {fileID: 21300000, guid: e055199e4350a76449bfa40544060a5a, type: 3}
    - time: 5.766667
      value: {fileID: 21300000, guid: 68ca120f768c43b41b6bc158ec4d078d, type: 3}
    - time: 5.8
      value: {fileID: 21300000, guid: 35be0b37a8726c8428dfff5d7124e965, type: 3}
    - time: 5.8333335
      value: {fileID: 21300000, guid: 80ffbfe3a596fc74ea81b4f6f3370541, type: 3}
    - time: 5.866667
      value: {fileID: 21300000, guid: a4fadc74ee15a48499c40e10fe0fc3ec, type: 3}
    - time: 5.9
      value: {fileID: 21300000, guid: f614b2d9c79cb2c4daf5bbb6fb09f6e1, type: 3}
    - time: 5.9333334
      value: {fileID: 21300000, guid: 24a526093eefcde4981d24911cff0494, type: 3}
    - time: 5.9666667
      value: {fileID: 21300000, guid: bb6544592d6dd874dbfca906a9efa267, type: 3}
    attribute: m_Sprite
    path: 
    classID: 212
    script: {fileID: 0}
  m_SampleRate: 30
  m_WrapMode: 0
  m_Bounds:
    m_Center: {x: 0, y: 0, z: 0}
    m_Extent: {x: 0, y: 0, z: 0}
  m_ClipBindingConstant:
    genericBindings:
    - serializedVersion: 2
      path: 0
      attribute: 0
      script: {fileID: 0}
      typeID: 212
      customType: 23
      isPPtrCurve: 1
    pptrCurveMapping:
    - {fileID: 21300000, guid: 7b673adc1412f9141be32fc571af7659, type: 3}
    - {fileID: 21300000, guid: 8e5fd712e177d6540868daf2360e9555, type: 3}
    - {fileID: 21300000, guid: e05a5a13d1c412f4c88dbdf677d38a6c, type: 3}
    - {fileID: 21300000, guid: 8444bf70fd43875458a972f986ed92d4, type: 3}
    - {fileID: 21300000, guid: 173f53a4962be0643bda726439e1b529, type: 3}
    - {fileID: 21300000, guid: a346b63dec49c144a8aba419b4946bb1, type: 3}
    - {fileID: 21300000, guid: a453ed8e3c8477c4f9a66d0e91cff61c, type: 3}
    - {fileID: 21300000, guid: e04f798cfc3c60c43b331a374c6d6fe2, type: 3}
    - {fileID: 21300000, guid: a77c6d6af14b36e428cb2b8737e68ee3, type: 3}
    - {fileID: 21300000, guid: e4c8a962ebd7a3644981ff64b1aa08fd, type: 3}
    - {fileID: 21300000, guid: fa34fd0831f82a04ba577ee492a2326b, type: 3}
    - {fileID: 21300000, guid: fafe0b61ae2671545b6858abfdcac9f0, type: 3}
    - {fileID: 21300000, guid: b3ca64467ca45bc439517ea39aa2f38f, type: 3}
    - {fileID: 21300000, guid: 71679d8bd73752349849c4d0e3effabf, type: 3}
    - {fileID: 21300000, guid: e67a21312350f7a45aabe522ca234240, type: 3}
    - {fileID: 21300000, guid: 2131bece98d6893419136bd4b4f88ec3, type: 3}
    - {fileID: 21300000, guid: ee20ffe08cdd7da4daca1673cde1e1c0, type: 3}
    - {fileID: 21300000, guid: 8dcd977d0d838af4fbe26ccdb871c8db, type: 3}
    - {fileID: 21300000, guid: 0395e5eeb3cc9e948b8f571f9834ea54, type: 3}
    - {fileID: 21300000, guid: 2e39dba5c9a55d44186305ae22e37219, type: 3}
    - {fileID: 21300000, guid: b4f799c6248c43e40b324754aa29c959, type: 3}
    - {fileID: 21300000, guid: 9927769f73500af41a15b1e6b36cfff7, type: 3}
    - {fileID: 21300000, guid: 0ba6142f654c1ae479ab1336a5e16941, type: 3}
    - {fileID: 21300000, guid: 3cf45e474eca0c344a480b49d66629eb, type: 3}
    - {fileID: 21300000, guid: 2ce6c4bfec86ca34fa542b73ff6635d8, type: 3}
    - {fileID: 21300000, guid: 41c2f778f0ef0d14fbfb1120fa5f4a8a, type: 3}
    - {fileID: 21300000, guid: dbdb7725fb715f344a296ab03d5f7e79, type: 3}
    - {fileID: 21300000, guid: 9f0599bf7a37bdf41987c93042fec61b, type: 3}
    - {fileID: 21300000, guid: 2ae2a7a624b42c04db5d45fb3af2307a, type: 3}
    - {fileID: 21300000, guid: b499499c70ae5534781f9ff429ac6afa, type: 3}
    - {fileID: 21300000, guid: 13071c56719acc64e9e5e884591dd6ca, type: 3}
    - {fileID: 21300000, guid: 288a2f3e0ee4f504ea5be73aff493f32, type: 3}
    - {fileID: 21300000, guid: 74a12ad2154a30f4c95d156f82ef9742, type: 3}
    - {fileID: 21300000, guid: e41495eb8ee9ab24fa92bfb6facb581c, type: 3}
    - {fileID: 21300000, guid: f58a7ab3a7c9fc8418b06d89b554ab2a, type: 3}
    - {fileID: 21300000, guid: ecb4bad5579af7e479f84336766e4118, type: 3}
    - {fileID: 21300000, guid: 3e1049580befb7a45ad273bfdd146c06, type: 3}
    - {fileID: 21300000, guid: b469f5af420c0f949b5fdba39e89ec58, type: 3}
    - {fileID: 21300000, guid: 749f7fd787f2aaf4e8d90a4fac073489, type: 3}
    - {fileID: 21300000, guid: 7385873841a2b174abacbfaf8c354f1a, type: 3}
    - {fileID: 21300000, guid: 7ab07e7c272f71d4aa3e4b2aa8dc055b, type: 3}
    - {fileID: 21300000, guid: b803c3152b4ddad46b218b163400406f, type: 3}
    - {fileID: 21300000, guid: 93144b5bfaaada8448b73bb5f19cb806, type: 3}
    - {fileID: 21300000, guid: f2e0826b48dd26947a562c1365db0620, type: 3}
    - {fileID: 21300000, guid: 28c343fda85148545872432b9dda5b01, type: 3}
    - {fileID: 21300000, guid: fa0b4802f6eccd7499e8d67324959279, type: 3}
    - {fileID: 21300000, guid: e6e689d46bb3a3f4ca06c86dbcbede41, type: 3}
    - {fileID: 21300000, guid: c2daee776d748f44fab3b25c3561f090, type: 3}
    - {fileID: 21300000, guid: 2470c22bc6f0c7c40849f4a2415879be, type: 3}
    - {fileID: 21300000, guid: e1a751cead361214f8651903658dc324, type: 3}
    - {fileID: 21300000, guid: 1db1ad65e1da2d3409663b4047800e3d, type: 3}
    - {fileID: 21300000, guid: a9977598644bfd543843af75f245c543, type: 3}
    - {fileID: 21300000, guid: c0282c6417bb9fa4facc23c21b799ee0, type: 3}
    - {fileID: 21300000, guid: 826d42ea2e69914418a81585bdf5073f, type: 3}
    - {fileID: 21300000, guid: a3fb5e7584bf3294c9640183ad0fe4fd, type: 3}
    - {fileID: 21300000, guid: e643c5b7e6d097545af85d445ee8adfe, type: 3}
    - {fileID: 21300000, guid: 42cb876d2a06bfb43807874335298d40, type: 3}
    - {fileID: 21300000, guid: a0d7662842de5f542afd2420f75e7b73, type: 3}
    - {fileID: 21300000, guid: 3bf42739f78c4ee448ef3a4ce97fb229, type: 3}
    - {fileID: 21300000, guid: 5db0171d4515c634db7104a800f64b90, type: 3}
    - {fileID: 21300000, guid: 39420add5a31b624cb0ef03a2812d242, type: 3}
    - {fileID: 21300000, guid: 6f51e420ced64864a97d2505bce75b3b, type: 3}
    - {fileID: 21300000, guid: 5b0d30d00461a1a4399619fcc1f99c1b, type: 3}
    - {fileID: 21300000, guid: 5baab5be7fb820141920f9296b89fafc, type: 3}
    - {fileID: 21300000, guid: b3e096b06b2a3b9428743b61df4bdbdf, type: 3}
    - {fileID: 21300000, guid: cd17d874467db7e4c89cd49b95f3d855, type: 3}
    - {fileID: 21300000, guid: a409f336df57b1148a53d725954352eb, type: 3}
    - {fileID: 21300000, guid: 74fea203ac3e3c643841b94f44ac8709, type: 3}
    - {fileID: 21300000, guid: 9e878ce5e04d12b468cd34cd91e2672d, type: 3}
    - {fileID: 21300000, guid: 954890f0ca1aa5b428c30e8f5d08b871, type: 3}
    - {fileID: 21300000, guid: 2cf154c1e267b474bb8c0b4abde05741, type: 3}
    - {fileID: 21300000, guid: f090ea04a724bf8438376bd102333bf2, type: 3}
    - {fileID: 21300000, guid: 084c6e81763d706419af570f0dfa0fca, type: 3}
    - {fileID: 21300000, guid: 169031c4650abba44b7e29e45219e7df, type: 3}
    - {fileID: 21300000, guid: 324543697f6136e408f81e6cde8f15bf, type: 3}
    - {fileID: 21300000, guid: 6a699c1c9cd5bf44c9161521c4ee4b67, type: 3}
    - {fileID: 21300000, guid: 06285da60ddef5346a89345ab83299ef, type: 3}
    - {fileID: 21300000, guid: 1b6ab95b1d334ec4e9458469433addb0, type: 3}
    - {fileID: 21300000, guid: e0287ca487b67de46a8426158fe692f0, type: 3}
    - {fileID: 21300000, guid: 937b7229472a46b49b649bc2dd800512, type: 3}
    - {fileID: 21300000, guid: 8bec1aefcaaae46458ce548ffc697c3f, type: 3}
    - {fileID: 21300000, guid: b11454420d3085a4b8d5e831194391c7, type: 3}
    - {fileID: 21300000, guid: 925cbde5b6ecdee43bba1a659d4e97ef, type: 3}
    - {fileID: 21300000, guid: e2bf1efb071eaa849b10f272412aa31a, type: 3}
    - {fileID: 21300000, guid: 25b6566d21c9758488328a329f746678, type: 3}
    - {fileID: 21300000, guid: 9c2d9422d108c8f49a647de465878303, type: 3}
    - {fileID: 21300000, guid: f209f423b719f9a4293203e1c66b4538, type: 3}
    - {fileID: 21300000, guid: 09d167bcffb5bab459caa587f983cea7, type: 3}
    - {fileID: 21300000, guid: ba0cb0b10a6d6fe438444dd231df5459, type: 3}
    - {fileID: 21300000, guid: bd2d45ea7bf8eed4994204cf9e02cf32, type: 3}
    - {fileID: 21300000, guid: ab0435884cf0177419877fbac9f051be, type: 3}
    - {fileID: 21300000, guid: 90961a7ec124fa94da26e0c991a3562a, type: 3}
    - {fileID: 21300000, guid: 1c2f54763708c2f4d97038aae5157282, type: 3}
    - {fileID: 21300000, guid: 313f872084808be47aab683c7d83b6fc, type: 3}
    - {fileID: 21300000, guid: 96db0964f52313048ae7d09e87d2bcfd, type: 3}
    - {fileID: 21300000, guid: 6a911ad23632c96459d03853f8fcbcce, type: 3}
    - {fileID: 21300000, guid: 7967b9e4dd58b42409fa008b8d51ab1d, type: 3}
    - {fileID: 21300000, guid: f93218b0631fc5347b784468c28d774c, type: 3}
    - {fileID: 21300000, guid: 2dc33c8a6fc757c4b8ebb4d4a55429bf, type: 3}
    - {fileID: 21300000, guid: 499251e4546961f4fa43001992e643b5, type: 3}
    - {fileID: 21300000, guid: c6e19076be3d87f47ae79502468c1dc0, type: 3}
    - {fileID: 21300000, guid: 4a7ec1d3e14a0954c9bb8f30314a3ff8, type: 3}
    - {fileID: 21300000, guid: f2c24ba7bb938424b9dafa46dea4a074, type: 3}
    - {fileID: 21300000, guid: fc50e37c476093245bc61de1f4d3936d, type: 3}
    - {fileID: 21300000, guid: a049f49212f182c4cbaf5d881691b990, type: 3}
    - {fileID: 21300000, guid: ca2eafd7aa9a1e6488f33d14e440f372, type: 3}
    - {fileID: 21300000, guid: ec3d8476680913e4c855553b1f8b1a63, type: 3}
    - {fileID: 21300000, guid: e1f9f94051b0e9d4ebf789f0d851169f, type: 3}
    - {fileID: 21300000, guid: 4b76d3d81bcae1f47ba7e760e6f9b3f5, type: 3}
    - {fileID: 21300000, guid: 1332e27ab3433374f88be2814027d941, type: 3}
    - {fileID: 21300000, guid: b1d5276829300d8489314da8c6f63519, type: 3}
    - {fileID: 21300000, guid: 3756c365b074db542894269366b79d79, type: 3}
    - {fileID: 21300000, guid: 518cb832a459475489e7b6380fd7ca91, type: 3}
    - {fileID: 21300000, guid: f85846a8819d6ac4187df6cd7e377ccc, type: 3}
    - {fileID: 21300000, guid: 923c074788290d646a75c511185d0fd9, type: 3}
    - {fileID: 21300000, guid: a2e900ba68d48784fb6460a516c76dbf, type: 3}
    - {fileID: 21300000, guid: a5e707672464db74dbed69e8bca3931a, type: 3}
    - {fileID: 21300000, guid: 26b8bc20aaf36394db2f98be838d9953, type: 3}
    - {fileID: 21300000, guid: a4bff8653cefe12438232cd3be21d6e5, type: 3}
    - {fileID: 21300000, guid: 3239735a1342c7a44b7720824250320c, type: 3}
    - {fileID: 21300000, guid: 9b70fcfe54996e04c80dfb1e21fe5ac1, type: 3}
    - {fileID: 21300000, guid: 15b06d6eb375b124ea95442079a00a4b, type: 3}
    - {fileID: 21300000, guid: d85584b4ad66e9b429fce02f8cb1b756, type: 3}
    - {fileID: 21300000, guid: 0c379fc270b76f54c80f7f081f5c6789, type: 3}
    - {fileID: 21300000, guid: a3d32cb4516f20c4388dee92fc259af1, type: 3}
    - {fileID: 21300000, guid: 618ddcbf792d6654fb605b4eebccb670, type: 3}
    - {fileID: 21300000, guid: 5be6e17abd3b952438cae6fa6eb1e3af, type: 3}
    - {fileID: 21300000, guid: 62387ce0318e9364785d2e02d0fe872b, type: 3}
    - {fileID: 21300000, guid: 3f50b36e8c50b5a43bd69e12bb9406a0, type: 3}
    - {fileID: 21300000, guid: 4ba2d76f6b6b42044b150f6dc8cd4222, type: 3}
    - {fileID: 21300000, guid: 2421b1fd28a59144aa63456e6ec3cf3b, type: 3}
    - {fileID: 21300000, guid: 2558e7d13bfff8644886b9a0559d98b9, type: 3}
    - {fileID: 21300000, guid: 6b16a0fef4f6503409a9d48f1e497001, type: 3}
    - {fileID: 21300000, guid: 8b7b2a0d155fc7344b1502dff6126da4, type: 3}
    - {fileID: 21300000, guid: 15d37f88d4ddd19418fce66353d11fce, type: 3}
    - {fileID: 21300000, guid: 5c39290653ae03645ae4e2e9fd49b775, type: 3}
    - {fileID: 21300000, guid: 1e5e492476ac28648b23ac6840713f48, type: 3}
    - {fileID: 21300000, guid: 871b1d05872320c4f934a4a6544f9718, type: 3}
    - {fileID: 21300000, guid: 12ed935b075437f48af6d70db9b8c2fc, type: 3}
    - {fileID: 21300000, guid: dc18d2597e2c3d7419bc3f5144768158, type: 3}
    - {fileID: 21300000, guid: fefee6cb466dc204cab676eedb711367, type: 3}
    - {fileID: 21300000, guid: 83e76578fa9b3964ab1a5632ca1dac84, type: 3}
    - {fileID: 21300000, guid: e84e3757a5c996d4ebd2aa96fa1d4861, type: 3}
    - {fileID: 21300000, guid: a5517d6c172d218448adb1ac30b2fe1b, type: 3}
    - {fileID: 21300000, guid: 1b1f9144a752c4b418124a2839e3ddf8, type: 3}
    - {fileID: 21300000, guid: 21c6b7deb85658a4a9073a4e4977cf1f, type: 3}
    - {fileID: 21300000, guid: ced7021dd9cf52d4d8b2dbbf7a53b06e, type: 3}
    - {fileID: 21300000, guid: 9f454ff8c0acb6749930ce0efee7e995, type: 3}
    - {fileID: 21300000, guid: 1555636e0df9a2e4ea980e1a6b8057f2, type: 3}
    - {fileID: 21300000, guid: 8b7a31f1aa9fd0948902018cda291337, type: 3}
    - {fileID: 21300000, guid: 88a8ec132ff028e438c4874bdfaa48e4, type: 3}
    - {fileID: 21300000, guid: fda41096eb3733b4fb1cec7cc719b018, type: 3}
    - {fileID: 21300000, guid: 295c1734cea4f964d9185a08acc90934, type: 3}
    - {fileID: 21300000, guid: 1b7d3f864033b88469a63d9eff7cfb80, type: 3}
    - {fileID: 21300000, guid: 7bc560ee978c3d74b82e644e41761a76, type: 3}
    - {fileID: 21300000, guid: 144e0df4f22c737489a40dfcace17d3f, type: 3}
    - {fileID: 21300000, guid: c10a9d725402e894782df527c60899d0, type: 3}
    - {fileID: 21300000, guid: 8bbe4ef8e4a851c4aa4fad3141d5aeea, type: 3}
    - {fileID: 21300000, guid: 11b78737bd3ead143839baffef1cc64f, type: 3}
    - {fileID: 21300000, guid: 0f2a178dbf2263b4988f54340b6bbbca, type: 3}
    - {fileID: 21300000, guid: 78d664e73febda742bcc1f1d2142f6fd, type: 3}
    - {fileID: 21300000, guid: e541013e7cbf3414a9bd7e63d0134c9d, type: 3}
    - {fileID: 21300000, guid: 74340b98f88598c4b94357fbd5ae9cba, type: 3}
    - {fileID: 21300000, guid: 0d65e0f6fb65d4646a2d720caa6636d5, type: 3}
    - {fileID: 21300000, guid: 377ee94d63618374aac4c2949ec778cc, type: 3}
    - {fileID: 21300000, guid: b80e37a9a266ace429f3a0e8026048b8, type: 3}
    - {fileID: 21300000, guid: 05e200f3582a5d14dbd0917f90ba3753, type: 3}
    - {fileID: 21300000, guid: d863eb2909c2dfb4da6eed6e24187fef, type: 3}
    - {fileID: 21300000, guid: 81ca6ef25232fa845862d4404ad17431, type: 3}
    - {fileID: 21300000, guid: 808a45b5d3990bd46ba41e3ad8295e4c, type: 3}
    - {fileID: 21300000, guid: e3ab0a9d4659d1343974ca4e73720470, type: 3}
    - {fileID: 21300000, guid: 8e17e4046e1e960428a0ab80eec92ab7, type: 3}
    - {fileID: 21300000, guid: e055199e4350a76449bfa40544060a5a, type: 3}
    - {fileID: 21300000, guid: 68ca120f768c43b41b6bc158ec4d078d, type: 3}
    - {fileID: 21300000, guid: 35be0b37a8726c8428dfff5d7124e965, type: 3}
    - {fileID: 21300000, guid: 80ffbfe3a596fc74ea81b4f6f3370541, type: 3}
    - {fileID: 21300000, guid: a4fadc74ee15a48499c40e10fe0fc3ec, type: 3}
    - {fileID: 21300000, guid: f614b2d9c79cb2c4daf5bbb6fb09f6e1, type: 3}
    - {fileID: 21300000, guid: 24a526093eefcde4981d24911cff0494, type: 3}
    - {fileID: 21300000, guid: bb6544592d6dd874dbfca906a9efa267, type: 3}
  m_AnimationClipSettings:
    serializedVersion: 2
    m_AdditiveReferencePoseClip: {fileID: 0}
    m_AdditiveReferencePoseTime: 0
    m_StartTime: 0
    m_StopTime: 6
    m_OrientationOffsetY: 0
    m_Level: 0
    m_CycleOffset: 0
    m_HasAdditiveReferencePose: 0
    m_LoopTime: 1
    m_LoopBlend: 0
    m_LoopBlendOrientation: 0
    m_LoopBlendPositionY: 0
    m_LoopBlendPositionXZ: 0
    m_KeepOriginalOrientation: 0
    m_KeepOriginalPositionY: 1
    m_KeepOriginalPositionXZ: 0
    m_HeightFromFeet: 0
    m_Mirror: 0
  m_EditorCurves: []
  m_EulerEditorCurves: []
  m_HasGenericRootTransform: 0
  m_HasMotionFloatCurves: 0
  m_GenerateMotionCurves: 0
  m_Events: []
