%YAML 1.1
%TAG !u! tag:unity3d.com,2011:
--- !u!21 &2100000
Material:
  serializedVersion: 6
  m_ObjectHideFlags: 0
  m_CorrespondingSourceObject: {fileID: 0}
  m_PrefabInternal: {fileID: 0}
  m_Name: PostEffect_Example
  m_Shader: {fileID: 4800000, guid: bd955d9832dd6414f9659a6e1e41041c, type: 3}
  m_ShaderKeywords: ABERRATION COMPLEX RADIAL SCAN_LINES SCREEN_POS SCREEN_SPACE TEXTURE_SWAP
    VIEW_DATA _CLIPPEDTILES_ON _EMISSION _SCALEAROUNDTILE_ON
  m_LightmapFlags: 1
  m_EnableInstancingVariants: 0
  m_DoubleSidedGI: 0
  m_CustomRenderQueue: 2000
  stringTagMap:
    IgnoreProjectors: False
    RenderType: Opaque
  disabledShaderPasses: []
  m_SavedProperties:
    serializedVersion: 3
    m_TexEnvs:
    - _BumpMap:
        m_Texture: {fileID: 0}
        m_Scale: {x: 1, y: 1}
        m_Offset: {x: 0, y: 0}
    - _DetailAlbedoMap:
        m_Texture: {fileID: 0}
        m_Scale: {x: 1, y: 1}
        m_Offset: {x: 0, y: 0}
    - _DetailMask:
        m_Texture: {fileID: 0}
        m_Scale: {x: 1, y: 1}
        m_Offset: {x: 0, y: 0}
    - _DetailNormalMap:
        m_Texture: {fileID: 0}
        m_Scale: {x: 1, y: 1}
        m_Offset: {x: 0, y: 0}
    - _EmissionMap:
        m_Texture: {fileID: 0}
        m_Scale: {x: 1, y: 1}
        m_Offset: {x: 0, y: 0}
    - _MainTex:
        m_Texture: {fileID: 0}
        m_Scale: {x: 1, y: 1}
        m_Offset: {x: 0, y: 0}
    - _MainTex2:
        m_Texture: {fileID: 0}
        m_Scale: {x: 1, y: 1}
        m_Offset: {x: 0, y: 0}
    - _MetallicGlossMap:
        m_Texture: {fileID: 0}
        m_Scale: {x: 1, y: 1}
        m_Offset: {x: 0, y: 0}
    - _Noise:
        m_Texture: {fileID: 2800000, guid: 95d2ac69507625142a0e8e164a0302b4, type: 3}
        m_Scale: {x: 1, y: 1}
        m_Offset: {x: 0, y: 0}
    - _OcclusionMap:
        m_Texture: {fileID: 0}
        m_Scale: {x: 1, y: 1}
        m_Offset: {x: 0, y: 0}
    - _ParallaxMap:
        m_Texture: {fileID: 0}
        m_Scale: {x: 1, y: 1}
        m_Offset: {x: 0, y: 0}
    m_Floats:
    - _Aberration: 0.5
    - _BackfaceVisibility: 0
    - _BlendDst: 0
    - _BlendSrc: 1
    - _BumpScale: 1
    - _ClippedTiles: 1
    - _Cull: 0
    - _Cutoff: 0.5
    - _DetailNormalMapScale: 1
    - _DstBlend: 0
    - _EffectAberration: 0
    - _FlashAmount: 0.033
    - _Flicker: 0.47
    - _GlossMapScale: 1
    - _Glossiness: 0.5
    - _GlossyReflections: 1
    - _IdleAmount: 0
    - _IdleRand: 1
    - _IdleSpeed: 1
    - _InvertIdle: 0
    - _InvertPhase: 0
    - _Metallic: 0
    - _Mode: 0
    - _OcclusionStrength: 1
    - _Overbright: 0
    - _Parallax: 0.02
    - _Phase: 1
    - _PhaseRotation: 0.75
    - _PhaseSharpness: 0.443
    - _Radial: 1
    - _RoundClipping: 0
    - _ScaleAroundTile: 1
    - _ScanlineIntensity: 0.254
    - _ScanlineScale: 1
    - _ScanlineShift: 0
    - _Scattering: 0.341
    - _SmoothnessTextureChannel: 0
    - _SpecularHighlights: 1
    - _SquareTiles: 1
    - _SrcBlend: 1
    - _UVSec: 0
    - _ZTest: 4
    - _ZWrite: 1
    m_Colors:
    - _Color: {r: 1, g: 1, b: 1, a: 1}
    - _Color2: {r: 1, g: 1, b: 1, a: 1}
    - _EmissionColor: {r: 0, g: 0, b: 0, a: 1}
    - _IdleData: {r: 0.1, g: 0.1, b: 0, a: 0}
    - _PhaseDirection: {r: 0, g: 0, b: 0, a: 0}
    - _ScaleCenter: {r: 0.5, g: 0.5, b: 0, a: 0}
    - _Scaling: {r: -0.2, g: -0.2, b: 0, a: 0}
    - _ScanlineData: {r: 0.2, g: 0.5, b: 0, a: 0}
    - _TileCount: {r: 2000, g: 1, b: 0, a: 0}
