%YAML 1.1
%TAG !u! tag:unity3d.com,2011:
--- !u!1001 &100100000
Prefab:
  m_ObjectHideFlags: 1
  serializedVersion: 2
  m_Modification:
    m_TransformParent: {fileID: 0}
    m_Modifications: []
    m_RemovedComponents: []
  m_SourcePrefab: {fileID: 0}
  m_RootGameObject: {fileID: 1104603189843894}
  m_IsPrefabAsset: 1
--- !u!1 &1104603189843894
GameObject:
  m_ObjectHideFlags: 0
  m_CorrespondingSourceObject: {fileID: 0}
  m_PrefabInternal: {fileID: 100100000}
  serializedVersion: 6
  m_Component:
  - component: {fileID: 4982704847701150}
  - component: {fileID: 114086847493173972}
  - component: {fileID: 114463911894962588}
  - component: {fileID: 114023613714696888}
  - component: {fileID: 114523916540689922}
  - component: {fileID: 114161919541542386}
  - component: {fileID: 114879838808508946}
  m_Layer: 0
  m_Name: 'Gesture Manager '
  m_TagString: Untagged
  m_Icon: {fileID: 0}
  m_NavMeshLayer: 0
  m_StaticEditorFlags: 0
  m_IsActive: 1
--- !u!4 &4982704847701150
Transform:
  m_ObjectHideFlags: 1
  m_CorrespondingSourceObject: {fileID: 0}
  m_PrefabInternal: {fileID: 100100000}
  m_GameObject: {fileID: 1104603189843894}
  m_LocalRotation: {x: 0, y: 0, z: 0, w: 1}
  m_LocalPosition: {x: 0, y: 0, z: 0}
  m_LocalScale: {x: 1, y: 1, z: 1}
  m_Children: []
  m_Father: {fileID: 0}
  m_RootOrder: 0
  m_LocalEulerAnglesHint: {x: 0, y: 0, z: 0}
--- !u!114 &114023613714696888
MonoBehaviour:
  m_ObjectHideFlags: 1
  m_CorrespondingSourceObject: {fileID: 0}
  m_PrefabInternal: {fileID: 100100000}
  m_GameObject: {fileID: 1104603189843894}
  m_Enabled: 1
  m_EditorHideFlags: 0
  m_Script: {fileID: 11500000, guid: 9aea61d4c2b51b043a5193ba99f76a47, type: 3}
  m_Name: 
  m_EditorClassIdentifier: 
  confidenceOutput: {fileID: 0}
  listener: {fileID: 0}
  bodySource: {fileID: 0}
  databasePath: KaoGesture_HandForward.gbd
  smoothTime: 0.5
  maxSpeed: 0.1
--- !u!114 &114086847493173972
MonoBehaviour:
  m_ObjectHideFlags: 1
  m_CorrespondingSourceObject: {fileID: 0}
  m_PrefabInternal: {fileID: 100100000}
  m_GameObject: {fileID: 1104603189843894}
  m_Enabled: 1
  m_EditorHideFlags: 0
  m_Script: {fileID: 11500000, guid: 9aea61d4c2b51b043a5193ba99f76a47, type: 3}
  m_Name: 
  m_EditorClassIdentifier: 
  confidenceOutput: {fileID: 0}
  listener: {fileID: 0}
  bodySource: {fileID: 0}
  databasePath: KaoGesture_HandForward.gbd
  smoothTime: 0.5
  maxSpeed: 0.1
--- !u!114 &114161919541542386
MonoBehaviour:
  m_ObjectHideFlags: 1
  m_CorrespondingSourceObject: {fileID: 0}
  m_PrefabInternal: {fileID: 100100000}
  m_GameObject: {fileID: 1104603189843894}
  m_Enabled: 1
  m_EditorHideFlags: 0
  m_Script: {fileID: 11500000, guid: 9aea61d4c2b51b043a5193ba99f76a47, type: 3}
  m_Name: 
  m_EditorClassIdentifier: 
  confidenceOutput: {fileID: 0}
  listener: {fileID: 0}
  bodySource: {fileID: 0}
  databasePath: KaoGesture_HandForward.gbd
  smoothTime: 0.5
  maxSpeed: 0.1
--- !u!114 &114463911894962588
MonoBehaviour:
  m_ObjectHideFlags: 1
  m_CorrespondingSourceObject: {fileID: 0}
  m_PrefabInternal: {fileID: 100100000}
  m_GameObject: {fileID: 1104603189843894}
  m_Enabled: 1
  m_EditorHideFlags: 0
  m_Script: {fileID: 11500000, guid: 9aea61d4c2b51b043a5193ba99f76a47, type: 3}
  m_Name: 
  m_EditorClassIdentifier: 
  confidenceOutput: {fileID: 0}
  listener: {fileID: 0}
  bodySource: {fileID: 0}
  databasePath: KaoGesture_HandForward.gbd
  smoothTime: 0.5
  maxSpeed: 0.1
--- !u!114 &114523916540689922
MonoBehaviour:
  m_ObjectHideFlags: 1
  m_CorrespondingSourceObject: {fileID: 0}
  m_PrefabInternal: {fileID: 100100000}
  m_GameObject: {fileID: 1104603189843894}
  m_Enabled: 1
  m_EditorHideFlags: 0
  m_Script: {fileID: 11500000, guid: 9aea61d4c2b51b043a5193ba99f76a47, type: 3}
  m_Name: 
  m_EditorClassIdentifier: 
  confidenceOutput: {fileID: 0}
  listener: {fileID: 0}
  bodySource: {fileID: 0}
  databasePath: KaoGesture_HandForward.gbd
  smoothTime: 0.5
  maxSpeed: 0.1
--- !u!114 &114879838808508946
MonoBehaviour:
  m_ObjectHideFlags: 1
  m_CorrespondingSourceObject: {fileID: 0}
  m_PrefabInternal: {fileID: 100100000}
  m_GameObject: {fileID: 1104603189843894}
  m_Enabled: 1
  m_EditorHideFlags: 0
  m_Script: {fileID: 11500000, guid: 9aea61d4c2b51b043a5193ba99f76a47, type: 3}
  m_Name: 
  m_EditorClassIdentifier: 
  confidenceOutput: {fileID: 0}
  listener: {fileID: 0}
  bodySource: {fileID: 0}
  databasePath: KaoGesture_HandForward.gbd
  smoothTime: 0.5
  maxSpeed: 0.1
